
btnSignUpConfirm_Click 4.06.2021 21:43:03
IsValidEmail 4.06.2021 21:43:03
ConnectToDatabase 4.06.2021 21:43:03
RegisterUser 4.06.2021 21:43:04
ConnectToDatabase 4.06.2021 21:43:16
LoginUser 4.06.2021 21:43:17
SetCurrentCustomer 4.06.2021 21:43:17
tabPageAccount_Enter 4.06.2021 21:43:17
UpdateBillTable 4.06.2021 21:43:17
tabPageCart_Enter 4.06.2021 21:43:26
UpdateShoppingCartTable 4.06.2021 21:43:26
tabPageMusic_Enter 4.06.2021 21:43:31
UpdateMusicCDTable 4.06.2021 21:43:31
tabPageMagazine_Enter 4.06.2021 21:43:31
UpdateMagazineTable 4.06.2021 21:43:31
tabPageBook_Enter 4.06.2021 21:43:32
UpdateBookTable 4.06.2021 21:43:32
tabPageAccount_Enter 4.06.2021 21:43:32
UpdateBillTable 4.06.2021 21:43:32
tabPageMagazine_Enter 4.06.2021 21:43:32
UpdateMagazineTable 4.06.2021 21:43:32
tabPageBook_Enter 4.06.2021 21:43:49
UpdateBookTable 4.06.2021 21:43:49
tabPageCart_Enter 4.06.2021 21:43:50
UpdateShoppingCartTable 4.06.2021 21:43:50
ConnectToDatabase 4.06.2021 21:50:32
ConnectToDatabase 4.06.2021 21:50:33
LoginUser 4.06.2021 21:50:34
SetCurrentCustomer 4.06.2021 21:50:34
tabPageAccount_Enter 4.06.2021 21:50:35
UpdateBillTable 4.06.2021 21:50:35
tabPageCart_Enter 4.06.2021 21:50:36
UpdateShoppingCartTable 4.06.2021 21:50:36
ConnectToDatabase 4.06.2021 21:50:41
ConnectToDatabase 4.06.2021 21:50:42
SetCurrentCustomer 4.06.2021 21:50:43
tabPageAccount_Enter 4.06.2021 21:50:44
UpdateBillTable 4.06.2021 21:50:44
tabPageCart_Enter 4.06.2021 21:50:46
UpdateShoppingCartTable 4.06.2021 21:50:46
btnLogin_Click 4.06.2021 21:55:03
ConnectToDatabase 4.06.2021 21:55:03
ConnectToDatabase 4.06.2021 21:55:04
LoginUser 4.06.2021 21:55:05
SetCurrentCustomer 4.06.2021 21:55:05
tabPageAccount_Enter 4.06.2021 21:55:06
UpdateBillTable 4.06.2021 21:55:06
tabPageBook_Enter 4.06.2021 21:55:07
UpdateBookTable 4.06.2021 21:55:07
tabPageMagazine_Enter 4.06.2021 21:55:08
UpdateMagazineTable 4.06.2021 21:55:08
dgvMagazines_CellMouseClick 4.06.2021 21:55:08
dgvMagazines_CellMouseClick 4.06.2021 21:55:09
tabPageMusic_Enter 4.06.2021 21:55:10
UpdateMusicCDTable 4.06.2021 21:55:10
tabPageMagazine_Enter 4.06.2021 21:55:11
UpdateMagazineTable 4.06.2021 21:55:11
btnMagAddCart_Click 4.06.2021 21:55:12
AddRowToShoppingCart 4.06.2021 21:55:12
addProduct 4.06.2021 21:55:13
UpdateMagazineTable 4.06.2021 21:55:14
tabPageCart_Enter 4.06.2021 21:55:15
UpdateShoppingCartTable 4.06.2021 21:55:15
btnRemove_Click 4.06.2021 21:55:17
AddStockBack 4.06.2021 21:55:17
RemoveItemFromCart 4.06.2021 21:55:17
removeProduct 4.06.2021 21:55:17
UpdateShoppingCartTable 4.06.2021 21:55:20
btnLogin_Click 4.06.2021 21:55:49
ConnectToDatabase 4.06.2021 21:55:49
ConnectToDatabase 4.06.2021 21:55:50
SetCurrentCustomer 4.06.2021 21:55:51
tabPageAccount_Enter 4.06.2021 21:55:51
UpdateBillTable 4.06.2021 21:55:51
tabPageBook_Enter 4.06.2021 21:55:53
UpdateBookTable 4.06.2021 21:55:53
tabPageMagazine_Enter 4.06.2021 21:55:54
UpdateMagazineTable 4.06.2021 21:55:54
tabPageMusic_Enter 4.06.2021 21:55:54
UpdateMusicCDTable 4.06.2021 21:55:54
tabPageMagazine_Enter 4.06.2021 21:55:55
UpdateMagazineTable 4.06.2021 21:55:55
dgvMagazines_CellMouseClick 4.06.2021 21:55:55
dgvMagazines_CellMouseClick 4.06.2021 21:55:56
dgvMagazines_CellMouseClick 4.06.2021 21:55:56
dgvMagazines_CellMouseClick 4.06.2021 21:55:56
tabPageMusic_Enter 4.06.2021 21:55:56
UpdateMusicCDTable 4.06.2021 21:55:56
tabPageCart_Enter 4.06.2021 21:55:57
UpdateShoppingCartTable 4.06.2021 21:55:57
cBoxPType_SelectedIndexChanged 4.06.2021 21:55:59
UpdateMagazineTable 4.06.2021 21:55:59
dgvAdmin_SelectionChanged 4.06.2021 21:55:59
dgvAdmin_SelectionChanged 4.06.2021 21:56:00
dgvAdmin_CellMouseClick 4.06.2021 21:56:00
dgvAdmin_SelectionChanged 4.06.2021 21:56:00
dgvAdmin_CellMouseClick 4.06.2021 21:56:00
dgvAdmin_SelectionChanged 4.06.2021 21:56:00
dgvAdmin_CellMouseClick 4.06.2021 21:56:00
btnUpdate_Click 4.06.2021 21:56:06
UpdateMagazines 4.06.2021 21:56:06
UpdateMagazineTable 4.06.2021 21:56:09
dgvAdmin_SelectionChanged 4.06.2021 21:56:09
dgvAdmin_SelectionChanged 4.06.2021 21:56:09
btnAdd_Click 4.06.2021 21:56:16
AddMagazineToDatabase 4.06.2021 21:56:19
UpdateMagazineTable 4.06.2021 21:56:20
dgvAdmin_SelectionChanged 4.06.2021 21:56:20
dgvAdmin_SelectionChanged 4.06.2021 21:56:20
btnLogin_Click 4.06.2021 21:58:02
ConnectToDatabase 4.06.2021 21:58:02
ConnectToDatabase 4.06.2021 21:58:03
LoginUser 4.06.2021 21:58:04
btnLogin_Click 4.06.2021 21:58:37
ConnectToDatabase 4.06.2021 21:58:37
ConnectToDatabase 4.06.2021 21:58:38
SetCurrentCustomer 4.06.2021 21:58:39
tabPageAccount_Enter 4.06.2021 21:58:40
UpdateBillTable 4.06.2021 21:58:40
tabPageBook_Enter 4.06.2021 21:58:48
UpdateBookTable 4.06.2021 21:58:48
tabPageMagazine_Enter 4.06.2021 21:58:48
UpdateMagazineTable 4.06.2021 21:58:48
tabPageMusic_Enter 4.06.2021 21:58:49
UpdateMusicCDTable 4.06.2021 21:58:49
tabPageMagazine_Enter 4.06.2021 21:58:50
UpdateMagazineTable 4.06.2021 21:58:50
dgvMagazines_CellMouseClick 4.06.2021 21:58:50
dgvMagazines_CellMouseClick 4.06.2021 21:58:50
dgvMagazines_CellMouseClick 4.06.2021 21:58:51
dgvMagazines_CellMouseClick 4.06.2021 21:58:51
dgvMagazines_CellMouseClick 4.06.2021 21:58:52
tabPageCart_Enter 4.06.2021 21:58:53
UpdateShoppingCartTable 4.06.2021 21:58:53
cBoxPType_SelectedIndexChanged 4.06.2021 21:58:54
UpdateMagazineTable 4.06.2021 21:58:54
dgvAdmin_SelectionChanged 4.06.2021 21:58:55
dgvAdmin_SelectionChanged 4.06.2021 21:58:55
dgvAdmin_CellMouseClick 4.06.2021 21:58:55
btnDelete_Click 4.06.2021 21:58:56
RemoveItemFromDatabase 4.06.2021 21:58:56
UpdateMagazineTable 4.06.2021 21:58:56
dgvAdmin_SelectionChanged 4.06.2021 21:58:56
dgvAdmin_SelectionChanged 4.06.2021 21:58:56
dgvAdmin_SelectionChanged 4.06.2021 21:58:57
dgvAdmin_CellMouseClick 4.06.2021 21:58:57
btnDelete_Click 4.06.2021 21:58:58
RemoveItemFromDatabase 4.06.2021 21:58:58
UpdateMagazineTable 4.06.2021 21:58:58
dgvAdmin_SelectionChanged 4.06.2021 21:58:58
dgvAdmin_SelectionChanged 4.06.2021 21:58:58
tabPageCart_Enter 4.06.2021 21:58:59
UpdateShoppingCartTable 4.06.2021 21:58:59
tabPageMusic_Enter 4.06.2021 21:58:59
UpdateMusicCDTable 4.06.2021 21:58:59
tabPageMagazine_Enter 4.06.2021 21:59:00
UpdateMagazineTable 4.06.2021 21:59:00
dgvAdmin_SelectionChanged 4.06.2021 21:59:00
dgvAdmin_SelectionChanged 4.06.2021 21:59:00
dgvAdmin_SelectionChanged 4.06.2021 21:59:00
dgvMagazines_CellMouseClick 4.06.2021 21:59:00
tabPageCart_Enter 4.06.2021 21:59:02
UpdateShoppingCartTable 4.06.2021 21:59:02
btnUpdate_Click 4.06.2021 21:59:07
UpdateMagazines 4.06.2021 21:59:07
UpdateMagazineTable 4.06.2021 21:59:08
dgvAdmin_SelectionChanged 4.06.2021 21:59:08
dgvAdmin_SelectionChanged 4.06.2021 21:59:08
btnLogin_Click 4.06.2021 22:00:19
ConnectToDatabase 4.06.2021 22:00:19
ConnectToDatabase 4.06.2021 22:00:20
SetCurrentCustomer 4.06.2021 22:00:21
tabPageAccount_Enter 4.06.2021 22:00:21
UpdateBillTable 4.06.2021 22:00:21
tabPageCart_Enter 4.06.2021 22:00:22
UpdateShoppingCartTable 4.06.2021 22:00:22
cBoxPType_SelectedIndexChanged 4.06.2021 22:00:25
UpdateMagazineTable 4.06.2021 22:00:25
dgvAdmin_SelectionChanged 4.06.2021 22:00:25
btnDelete_Click 4.06.2021 22:00:27
RemoveItemFromDatabase 4.06.2021 22:00:27
UpdateMagazineTable 4.06.2021 22:00:27
dgvAdmin_SelectionChanged 4.06.2021 22:00:27
dgvAdmin_SelectionChanged 4.06.2021 22:00:27
btnDelete_Click 4.06.2021 22:00:28
RemoveItemFromDatabase 4.06.2021 22:00:28
UpdateMagazineTable 4.06.2021 22:00:28
dgvAdmin_SelectionChanged 4.06.2021 22:00:28
cBoxPType_SelectedIndexChanged 4.06.2021 22:00:30
UpdateMusicCDTable 4.06.2021 22:00:30
cBoxPType_SelectedIndexChanged 4.06.2021 22:00:31
UpdateMagazineTable 4.06.2021 22:00:31
cBoxPType_SelectedIndexChanged 4.06.2021 22:00:32
UpdateBookTable 4.06.2021 22:00:32
tabPageCart_Enter 4.06.2021 22:00:33
UpdateShoppingCartTable 4.06.2021 22:00:33
tabPageMusic_Enter 4.06.2021 22:00:34
UpdateMusicCDTable 4.06.2021 22:00:34
tabPageMagazine_Enter 4.06.2021 22:00:34
UpdateMagazineTable 4.06.2021 22:00:34
tabPageBook_Enter 4.06.2021 22:00:34
UpdateBookTable 4.06.2021 22:00:35
tabPageAccount_Enter 4.06.2021 22:00:35
UpdateBillTable 4.06.2021 22:00:35
btnLogin_Click 4.06.2021 22:02:08
ConnectToDatabase 4.06.2021 22:02:08
ConnectToDatabase 4.06.2021 22:02:09
SetCurrentCustomer 4.06.2021 22:02:10
tabPageAccount_Enter 4.06.2021 22:02:10
UpdateBillTable 4.06.2021 22:02:10
cBoxPType_SelectedIndexChanged 4.06.2021 22:02:14
UpdateMagazineTable 4.06.2021 22:02:14
btnAdd_Click 4.06.2021 22:02:30
AddMagazineToDatabase 4.06.2021 22:02:30
UpdateMagazineTable 4.06.2021 22:02:32
dgvAdmin_SelectionChanged 4.06.2021 22:02:32
btnAdd_Click 4.06.2021 22:03:09
AddMagazineToDatabase 4.06.2021 22:03:09
UpdateMagazineTable 4.06.2021 22:03:10
dgvAdmin_SelectionChanged 4.06.2021 22:03:10
dgvAdmin_SelectionChanged 4.06.2021 22:03:10
cBoxPType_SelectedIndexChanged 4.06.2021 22:03:19
UpdateMusicCDTable 4.06.2021 22:03:19
dgvAdmin_SelectionChanged 4.06.2021 22:03:19
btnAdd_Click 4.06.2021 22:03:46
AddMusicToDatabase 4.06.2021 22:03:46
UpdateMusicCDTable 4.06.2021 22:03:47
dgvAdmin_SelectionChanged 4.06.2021 22:03:48
btnAdd_Click 4.06.2021 22:04:13
AddMusicToDatabase 4.06.2021 22:04:13
UpdateMusicCDTable 4.06.2021 22:04:14
dgvAdmin_SelectionChanged 4.06.2021 22:04:14
dgvAdmin_SelectionChanged 4.06.2021 22:04:14
btnAdd_Click 4.06.2021 22:04:44
AddMusicToDatabase 4.06.2021 22:04:44
UpdateMusicCDTable 4.06.2021 22:04:45
dgvAdmin_SelectionChanged 4.06.2021 22:04:45
dgvAdmin_SelectionChanged 4.06.2021 22:04:46
cBoxPType_SelectedIndexChanged 4.06.2021 22:04:51
UpdateBookTable 4.06.2021 22:04:51
dgvAdmin_SelectionChanged 4.06.2021 22:04:51
btnAdd_Click 4.06.2021 22:05:19
AddBookToDatabase 4.06.2021 22:05:19
UpdateBookTable 4.06.2021 22:05:20
dgvAdmin_SelectionChanged 4.06.2021 22:05:20
btnAdd_Click 4.06.2021 22:05:53
AddBookToDatabase 4.06.2021 22:05:53
UpdateBookTable 4.06.2021 22:05:54
dgvAdmin_SelectionChanged 4.06.2021 22:05:54
dgvAdmin_SelectionChanged 4.06.2021 22:05:54
dgvAdmin_SelectionChanged 4.06.2021 22:06:08
dgvAdmin_CellMouseClick 4.06.2021 22:06:08
dgvAdmin_SelectionChanged 4.06.2021 22:06:08
dgvAdmin_CellMouseClick 4.06.2021 22:06:08
dgvAdmin_SelectionChanged 4.06.2021 22:06:09
dgvAdmin_CellMouseClick 4.06.2021 22:06:09
btnDelete_Click 4.06.2021 22:06:11
RemoveItemFromDatabase 4.06.2021 22:06:11
UpdateBookTable 4.06.2021 22:06:11
dgvAdmin_SelectionChanged 4.06.2021 22:06:11
dgvAdmin_SelectionChanged 4.06.2021 22:06:12
btnAdd_Click 4.06.2021 22:06:38
AddBookToDatabase 4.06.2021 22:06:38
UpdateBookTable 4.06.2021 22:06:39
dgvAdmin_SelectionChanged 4.06.2021 22:06:39
dgvAdmin_SelectionChanged 4.06.2021 22:06:39
dgvAdmin_SelectionChanged 4.06.2021 22:06:44
dgvAdmin_CellMouseClick 4.06.2021 22:06:44
dgvAdmin_SelectionChanged 4.06.2021 22:06:45
dgvAdmin_CellMouseClick 4.06.2021 22:06:45
cBoxPType_SelectedIndexChanged 4.06.2021 22:06:56
UpdateBookTable 4.06.2021 22:06:56
dgvAdmin_SelectionChanged 4.06.2021 22:06:56
dgvAdmin_SelectionChanged 4.06.2021 22:06:57
cBoxPType_SelectedIndexChanged 4.06.2021 22:06:58
UpdateBookTable 4.06.2021 22:06:58
dgvAdmin_SelectionChanged 4.06.2021 22:06:58
dgvAdmin_SelectionChanged 4.06.2021 22:06:58
dgvAdmin_SelectionChanged 4.06.2021 22:06:59
dgvAdmin_CellMouseClick 4.06.2021 22:06:59
cBoxPType_SelectedIndexChanged 4.06.2021 22:07:07
UpdateMagazineTable 4.06.2021 22:07:07
dgvAdmin_SelectionChanged 4.06.2021 22:07:07
dgvAdmin_SelectionChanged 4.06.2021 22:07:07
dgvAdmin_SelectionChanged 4.06.2021 22:07:15
dgvAdmin_CellMouseClick 4.06.2021 22:07:15
cBoxPType_SelectedIndexChanged 4.06.2021 22:07:27
UpdateMusicCDTable 4.06.2021 22:07:27
dgvAdmin_SelectionChanged 4.06.2021 22:07:27
dgvAdmin_SelectionChanged 4.06.2021 22:07:27
dgvAdmin_SelectionChanged 4.06.2021 22:07:27
dgvAdmin_CellMouseClick 4.06.2021 22:07:28
tabPageMusic_Enter 4.06.2021 22:07:36
UpdateMusicCDTable 4.06.2021 22:07:36
dgvAdmin_SelectionChanged 4.06.2021 22:07:36
dgvAdmin_SelectionChanged 4.06.2021 22:07:36
dgvAdmin_SelectionChanged 4.06.2021 22:07:37
dgvMusic_CellMouseClick 4.06.2021 22:07:37
dgvAdmin_SelectionChanged 4.06.2021 22:07:39
dgvMusic_CellMouseClick 4.06.2021 22:07:39
tabPageMagazine_Enter 4.06.2021 22:07:45
UpdateMagazineTable 4.06.2021 22:07:45
dgvMagazines_CellMouseClick 4.06.2021 22:07:46
dgvMagazines_CellMouseClick 4.06.2021 22:07:47
tabPageBook_Enter 4.06.2021 22:07:53
UpdateBookTable 4.06.2021 22:07:53
dgvBooks_CellMouseClick 4.06.2021 22:07:54
tabPageAccount_Enter 4.06.2021 22:08:01
UpdateBillTable 4.06.2021 22:08:01
tabPageCart_Enter 4.06.2021 22:08:05
UpdateShoppingCartTable 4.06.2021 22:08:05
tabPageMusic_Enter 4.06.2021 22:08:06
UpdateMusicCDTable 4.06.2021 22:08:06
dgvAdmin_SelectionChanged 4.06.2021 22:08:06
dgvAdmin_SelectionChanged 4.06.2021 22:08:06
btnMusAddCart_Click 4.06.2021 22:08:08
AddRowToShoppingCart 4.06.2021 22:08:08
addProduct 4.06.2021 22:08:08
UpdateMusicCDTable 4.06.2021 22:08:09
dgvAdmin_SelectionChanged 4.06.2021 22:08:09
dgvAdmin_SelectionChanged 4.06.2021 22:08:10
dgvAdmin_SelectionChanged 4.06.2021 22:08:11
dgvMusic_CellMouseClick 4.06.2021 22:08:11
tabPageBook_Enter 4.06.2021 22:08:12
UpdateBookTable 4.06.2021 22:08:12
dgvBooks_CellMouseClick 4.06.2021 22:08:13
btnBookAddCart_Click 4.06.2021 22:08:14
AddRowToShoppingCart 4.06.2021 22:08:14
addProduct 4.06.2021 22:08:14
UpdateBookTable 4.06.2021 22:08:16
tabPageCart_Enter 4.06.2021 22:08:17
UpdateShoppingCartTable 4.06.2021 22:08:17
dgvCart_CellMouseClick 4.06.2021 22:08:18
btnLogin_Click 4.06.2021 22:09:15
ConnectToDatabase 4.06.2021 22:09:15
ConnectToDatabase 4.06.2021 22:09:16
SetCurrentCustomer 4.06.2021 22:09:17
tabPageAccount_Enter 4.06.2021 22:09:17
UpdateBillTable 4.06.2021 22:09:17
tabPageCart_Enter 4.06.2021 22:09:18
UpdateShoppingCartTable 4.06.2021 22:09:18
dgvCart_CellMouseClick 4.06.2021 22:09:20
btnLogin_Click 4.06.2021 22:09:33
ConnectToDatabase 4.06.2021 22:09:33
ConnectToDatabase 4.06.2021 22:09:34
SetCurrentCustomer 4.06.2021 22:09:35
tabPageAccount_Enter 4.06.2021 22:09:35
UpdateBillTable 4.06.2021 22:09:35
tabPageCart_Enter 4.06.2021 22:09:37
UpdateShoppingCartTable 4.06.2021 22:09:37
dgvCart_CellMouseClick 4.06.2021 22:09:38
dgvCart_CellMouseClick 4.06.2021 22:09:39
tabPageMagazine_Enter 4.06.2021 22:09:48
UpdateMagazineTable 4.06.2021 22:09:48
dgvMagazines_CellMouseClick 4.06.2021 22:09:48
tabPageCart_Enter 4.06.2021 22:09:49
UpdateShoppingCartTable 4.06.2021 22:09:49
dgvCart_CellMouseClick 4.06.2021 22:09:50
dgvCart_CellMouseClick 4.06.2021 22:09:51
tabPageMagazine_Enter 4.06.2021 22:09:51
UpdateMagazineTable 4.06.2021 22:09:51
dgvMagazines_CellMouseClick 4.06.2021 22:09:52
dgvMagazines_CellMouseClick 4.06.2021 22:09:53
dgvMagazines_CellMouseClick 4.06.2021 22:09:53
btnMagAddCart_Click 4.06.2021 22:10:04
AddRowToShoppingCart 4.06.2021 22:10:04
addProduct 4.06.2021 22:10:05
UpdateMagazineTable 4.06.2021 22:10:06
tabPageCart_Enter 4.06.2021 22:10:07
UpdateShoppingCartTable 4.06.2021 22:10:07
tabPageCart_Enter 4.06.2021 22:10:10
UpdateShoppingCartTable 4.06.2021 22:10:10
btnCompOrder_Click 4.06.2021 22:10:13
CboxPayment_SelectedIndexChanged 4.06.2021 22:10:57
btnCPayment_Click 4.06.2021 22:11:54
IsValidEmail 4.06.2021 22:11:54
placeOrder 4.06.2021 22:11:54
AddRowToPurchaseHistory 4.06.2021 22:11:54
GetItemList 4.06.2021 22:12:04
ClearShoppingCart 4.06.2021 22:12:07
cancelOrder 4.06.2021 22:12:07
cancelOrder 4.06.2021 22:12:07
tabPageAccount_Enter 4.06.2021 22:12:11
UpdateBillTable 4.06.2021 22:12:11
tabPageCart_Enter 4.06.2021 22:12:44
UpdateShoppingCartTable 4.06.2021 22:12:44
btnLogin_Click 4.06.2021 22:36:10
ConnectToDatabase 4.06.2021 22:36:10
ConnectToDatabase 4.06.2021 22:36:11
SetCurrentCustomer 4.06.2021 22:36:13
tabPageAccount_Enter 4.06.2021 22:36:13
UpdateBillTable 4.06.2021 22:36:13
tabPageCart_Enter 4.06.2021 22:36:15
UpdateShoppingCartTable 4.06.2021 22:36:15
tabPageMusic_Enter 4.06.2021 22:36:16
UpdateMusicCDTable 4.06.2021 22:36:16
tabPageCart_Enter 4.06.2021 22:36:17
UpdateShoppingCartTable 4.06.2021 22:36:17
tabPageMagazine_Enter 4.06.2021 22:36:18
UpdateMagazineTable 4.06.2021 22:36:18
tabPageBook_Enter 4.06.2021 22:36:18
UpdateBookTable 4.06.2021 22:36:18
dgvBooks_CellMouseClick 4.06.2021 22:36:19
dgvBooks_CellMouseClick 4.06.2021 22:36:19
tabPageMagazine_Enter 4.06.2021 22:36:20
UpdateMagazineTable 4.06.2021 22:36:20
dgvMagazines_CellMouseClick 4.06.2021 22:36:21
dgvMagazines_CellMouseClick 4.06.2021 22:36:21
btnLogin_Click 4.06.2021 22:47:23
ConnectToDatabase 4.06.2021 22:47:23
ConnectToDatabase 4.06.2021 22:47:26
SetCurrentCustomer 4.06.2021 22:47:28
tabPageAccount_Enter 4.06.2021 22:47:28
UpdateBillTable 4.06.2021 22:47:28
btnLogin_Click 4.06.2021 23:08:30
ConnectToDatabase 4.06.2021 23:08:30
ConnectToDatabase 4.06.2021 23:08:32
SetCurrentCustomer 4.06.2021 23:08:33
tabPageAccount_Enter 4.06.2021 23:08:33
UpdateBillTable 4.06.2021 23:08:33
tabPageMusic_Enter 4.06.2021 23:08:34
UpdateMusicCDTable 4.06.2021 23:08:34
dgvMusic_CellMouseClick 4.06.2021 23:08:36
dgvMusic_CellMouseClick 4.06.2021 23:08:36
